{ "frames": [
   {
    "filename": "bg00",
    "frame": { "x": 0, "y": 0, "w": 550, "h": 280 },
    "rotated": false,
    "trimmed": true,
    "spriteSourceSize": { "x": 2, "y": 2, "w": 550, "h": 280 },
    "sourceSize": { "w": 554, "h": 284 },
    "duration": 100
   },
   {
    "filename": "01",
    "frame": { "x": 550, "y": 0, "w": 1, "h": 1 },
    "rotated": false,
    "trimmed": true,
    "spriteSourceSize": { "x": 0, "y": 0, "w": 1, "h": 1 },
    "sourceSize": { "w": 554, "h": 284 },
    "duration": 100
   },
   {
    "filename": "02",
    "frame": { "x": 550, "y": 0, "w": 1, "h": 1 },
    "rotated": false,
    "trimmed": true,
    "spriteSourceSize": { "x": 0, "y": 0, "w": 1, "h": 1 },
    "sourceSize": { "w": 554, "h": 284 },
    "duration": 100
   },
   {
    "filename": "03",
    "frame": { "x": 550, "y": 0, "w": 1, "h": 1 },
    "rotated": false,
    "trimmed": true,
    "spriteSourceSize": { "x": 0, "y": 0, "w": 1, "h": 1 },
    "sourceSize": { "w": 554, "h": 284 },
    "duration": 100
   },
   {
    "filename": "04",
    "frame": { "x": 550, "y": 0, "w": 1, "h": 1 },
    "rotated": false,
    "trimmed": true,
    "spriteSourceSize": { "x": 0, "y": 0, "w": 1, "h": 1 },
    "sourceSize": { "w": 554, "h": 284 },
    "duration": 100
   },
   {
    "filename": "05",
    "frame": { "x": 550, "y": 0, "w": 1, "h": 1 },
    "rotated": false,
    "trimmed": true,
    "spriteSourceSize": { "x": 0, "y": 0, "w": 1, "h": 1 },
    "sourceSize": { "w": 554, "h": 284 },
    "duration": 100
   }
 ],
 "meta": {
  "app": "https://www.aseprite.org/",
  "version": "1.2.40-x64",
  "image": "background.png",
  "format": "RGBA8888",
  "size": { "w": 551, "h": 280 },
  "scale": "1",
  "frameTags": [
   { "name": "bg", "from": 0, "to": 0, "direction": "forward" }
  ],
  "layers": [
   { "name": "Layer 1", "opacity": 255, "blendMode": "normal" },
   { "name": "Layer 2", "opacity": 255, "blendMode": "normal" },
   { "name": "Layer 3", "opacity": 255, "blendMode": "normal" },
   { "name": "Layer 4", "opacity": 255, "blendMode": "normal" }
  ],
  "slices": [
  ]
 }
}
