{ "frames": [
   {
    "filename": "external:mastodon00",
    "frame": { "x": 0, "y": 0, "w": 30, "h": 30 },
    "rotated": false,
    "trimmed": true,
    "spriteSourceSize": { "x": 2, "y": 2, "w": 30, "h": 30 },
    "sourceSize": { "w": 100, "h": 100 },
    "duration": 100
   },
   {
    "filename": "external:twitter00",
    "frame": { "x": 30, "y": 0, "w": 30, "h": 30 },
    "rotated": false,
    "trimmed": true,
    "spriteSourceSize": { "x": 2, "y": 2, "w": 30, "h": 30 },
    "sourceSize": { "w": 100, "h": 100 },
    "duration": 100
   },
   {
    "filename": "external:discord00",
    "frame": { "x": 60, "y": 0, "w": 30, "h": 30 },
    "rotated": false,
    "trimmed": true,
    "spriteSourceSize": { "x": 2, "y": 2, "w": 30, "h": 30 },
    "sourceSize": { "w": 100, "h": 100 },
    "duration": 100
   },
   {
    "filename": "03",
    "frame": { "x": 90, "y": 0, "w": 1, "h": 1 },
    "rotated": false,
    "trimmed": true,
    "spriteSourceSize": { "x": 0, "y": 0, "w": 1, "h": 1 },
    "sourceSize": { "w": 100, "h": 100 },
    "duration": 100
   }
 ],
 "meta": {
  "app": "https://www.aseprite.org/",
  "version": "1.3-beta7",
  "image": "links.png",
  "format": "RGBA8888",
  "size": { "w": 91, "h": 30 },
  "scale": "1",
  "frameTags": [
   { "name": "external:mastodon", "from": 0, "to": 0, "direction": "forward", "color": "#000000ff" },
   { "name": "external:twitter", "from": 1, "to": 1, "direction": "forward", "color": "#000000ff" },
   { "name": "external:discord", "from": 2, "to": 2, "direction": "forward", "color": "#000000ff" }
  ],
  "layers": [
   { "name": "Layer 1", "opacity": 255, "blendMode": "normal" },
   { "name": "Layer 2", "opacity": 255, "blendMode": "normal" },
   { "name": "Layer 3", "opacity": 255, "blendMode": "normal" },
   { "name": "Layer 4", "opacity": 255, "blendMode": "normal" }
  ],
  "slices": [
  ]
 }
}
