{ "frames": [
   {
    "filename": "ball00",
    "frame": { "x": 327, "y": 0, "w": 20, "h": 20 },
    "rotated": false,
    "trimmed": true,
    "spriteSourceSize": { "x": 46, "y": 30, "w": 20, "h": 20 },
    "sourceSize": { "w": 256, "h": 256 },
    "duration": 100
   },
   {
    "filename": "white00",
    "frame": { "x": 347, "y": 0, "w": 12, "h": 12 },
    "rotated": false,
    "trimmed": true,
    "spriteSourceSize": { "x": 46, "y": 30, "w": 12, "h": 12 },
    "sourceSize": { "w": 256, "h": 256 },
    "duration": 100
   },
   {
    "filename": "02",
    "frame": { "x": 359, "y": 0, "w": 1, "h": 1 },
    "rotated": false,
    "trimmed": true,
    "spriteSourceSize": { "x": 0, "y": 0, "w": 1, "h": 1 },
    "sourceSize": { "w": 256, "h": 256 },
    "duration": 100
   },
   {
    "filename": "texticon:bubble00",
    "frame": { "x": 347, "y": 12, "w": 11, "h": 11 },
    "rotated": false,
    "trimmed": true,
    "spriteSourceSize": { "x": 46, "y": 14, "w": 11, "h": 11 },
    "sourceSize": { "w": 256, "h": 256 },
    "duration": 100
   },
   {
    "filename": "04",
    "frame": { "x": 359, "y": 0, "w": 1, "h": 1 },
    "rotated": false,
    "trimmed": true,
    "spriteSourceSize": { "x": 0, "y": 0, "w": 1, "h": 1 },
    "sourceSize": { "w": 256, "h": 256 },
    "duration": 100
   },
   {
    "filename": "quest:bubble00",
    "frame": { "x": 100, "y": 39, "w": 20, "h": 19 },
    "rotated": false,
    "trimmed": true,
    "spriteSourceSize": { "x": 46, "y": 15, "w": 20, "h": 19 },
    "sourceSize": { "w": 256, "h": 256 },
    "duration": 100
   },
   {
    "filename": "quest:bubble:green00",
    "frame": { "x": 80, "y": 39, "w": 20, "h": 19 },
    "rotated": false,
    "trimmed": true,
    "spriteSourceSize": { "x": 46, "y": 15, "w": 20, "h": 19 },
    "sourceSize": { "w": 256, "h": 256 },
    "duration": 100
   },
   {
    "filename": "quest:bubble:green01",
    "frame": { "x": 60, "y": 39, "w": 20, "h": 19 },
    "rotated": false,
    "trimmed": true,
    "spriteSourceSize": { "x": 46, "y": 15, "w": 20, "h": 19 },
    "sourceSize": { "w": 256, "h": 256 },
    "duration": 100
   },
   {
    "filename": "quest:bubble:green02",
    "frame": { "x": 20, "y": 20, "w": 20, "h": 19 },
    "rotated": false,
    "trimmed": true,
    "spriteSourceSize": { "x": 46, "y": 15, "w": 20, "h": 19 },
    "sourceSize": { "w": 256, "h": 256 },
    "duration": 100
   },
   {
    "filename": "quest:bubble:red00",
    "frame": { "x": 40, "y": 20, "w": 20, "h": 19 },
    "rotated": false,
    "trimmed": true,
    "spriteSourceSize": { "x": 46, "y": 15, "w": 20, "h": 19 },
    "sourceSize": { "w": 256, "h": 256 },
    "duration": 100
   },
   {
    "filename": "quest:bubble:red01",
    "frame": { "x": 60, "y": 20, "w": 20, "h": 19 },
    "rotated": false,
    "trimmed": true,
    "spriteSourceSize": { "x": 46, "y": 15, "w": 20, "h": 19 },
    "sourceSize": { "w": 256, "h": 256 },
    "duration": 100
   },
   {
    "filename": "quest:bubble:red02",
    "frame": { "x": 80, "y": 20, "w": 20, "h": 19 },
    "rotated": false,
    "trimmed": true,
    "spriteSourceSize": { "x": 46, "y": 15, "w": 20, "h": 19 },
    "sourceSize": { "w": 256, "h": 256 },
    "duration": 100
   },
   {
    "filename": "quest:bubble:yellow00",
    "frame": { "x": 100, "y": 20, "w": 20, "h": 19 },
    "rotated": false,
    "trimmed": true,
    "spriteSourceSize": { "x": 46, "y": 15, "w": 20, "h": 19 },
    "sourceSize": { "w": 256, "h": 256 },
    "duration": 100
   },
   {
    "filename": "quest:bubble:yellow01",
    "frame": { "x": 120, "y": 20, "w": 20, "h": 19 },
    "rotated": false,
    "trimmed": true,
    "spriteSourceSize": { "x": 46, "y": 15, "w": 20, "h": 19 },
    "sourceSize": { "w": 256, "h": 256 },
    "duration": 100
   },
   {
    "filename": "quest:bubble:blue00",
    "frame": { "x": 140, "y": 20, "w": 20, "h": 19 },
    "rotated": false,
    "trimmed": true,
    "spriteSourceSize": { "x": 46, "y": 15, "w": 20, "h": 19 },
    "sourceSize": { "w": 256, "h": 256 },
    "duration": 100
   },
   {
    "filename": "quest:bubble:blue01",
    "frame": { "x": 160, "y": 20, "w": 20, "h": 19 },
    "rotated": false,
    "trimmed": true,
    "spriteSourceSize": { "x": 46, "y": 15, "w": 20, "h": 19 },
    "sourceSize": { "w": 256, "h": 256 },
    "duration": 100
   },
   {
    "filename": "quest:bubble:disabled00",
    "frame": { "x": 180, "y": 20, "w": 20, "h": 19 },
    "rotated": false,
    "trimmed": true,
    "spriteSourceSize": { "x": 46, "y": 15, "w": 20, "h": 19 },
    "sourceSize": { "w": 256, "h": 256 },
    "duration": 100
   },
   {
    "filename": "quest:bubble:disabled01",
    "frame": { "x": 180, "y": 20, "w": 20, "h": 19 },
    "rotated": false,
    "trimmed": true,
    "spriteSourceSize": { "x": 46, "y": 15, "w": 20, "h": 19 },
    "sourceSize": { "w": 256, "h": 256 },
    "duration": 100
   },
   {
    "filename": "18",
    "frame": { "x": 200, "y": 20, "w": 20, "h": 19 },
    "rotated": false,
    "trimmed": true,
    "spriteSourceSize": { "x": 46, "y": 15, "w": 20, "h": 19 },
    "sourceSize": { "w": 256, "h": 256 },
    "duration": 100
   },
   {
    "filename": "19",
    "frame": { "x": 200, "y": 20, "w": 20, "h": 19 },
    "rotated": false,
    "trimmed": true,
    "spriteSourceSize": { "x": 46, "y": 15, "w": 20, "h": 19 },
    "sourceSize": { "w": 256, "h": 256 },
    "duration": 100
   },
   {
    "filename": "20",
    "frame": { "x": 220, "y": 20, "w": 20, "h": 19 },
    "rotated": false,
    "trimmed": true,
    "spriteSourceSize": { "x": 46, "y": 15, "w": 20, "h": 19 },
    "sourceSize": { "w": 256, "h": 256 },
    "duration": 100
   },
   {
    "filename": "quest:parcel00",
    "frame": { "x": 240, "y": 20, "w": 20, "h": 19 },
    "rotated": false,
    "trimmed": true,
    "spriteSourceSize": { "x": 46, "y": 15, "w": 20, "h": 19 },
    "sourceSize": { "w": 256, "h": 256 },
    "duration": 100
   },
   {
    "filename": "quest:food00",
    "frame": { "x": 327, "y": 20, "w": 20, "h": 19 },
    "rotated": false,
    "trimmed": true,
    "spriteSourceSize": { "x": 46, "y": 15, "w": 20, "h": 19 },
    "sourceSize": { "w": 256, "h": 256 },
    "duration": 100
   },
   {
    "filename": "quest:people00",
    "frame": { "x": 260, "y": 26, "w": 20, "h": 19 },
    "rotated": false,
    "trimmed": true,
    "spriteSourceSize": { "x": 46, "y": 15, "w": 20, "h": 19 },
    "sourceSize": { "w": 256, "h": 256 },
    "duration": 100
   },
   {
    "filename": "24",
    "frame": { "x": 280, "y": 26, "w": 20, "h": 19 },
    "rotated": false,
    "trimmed": true,
    "spriteSourceSize": { "x": 46, "y": 15, "w": 20, "h": 19 },
    "sourceSize": { "w": 256, "h": 256 },
    "duration": 100
   },
   {
    "filename": "quest:home00",
    "frame": { "x": 300, "y": 26, "w": 20, "h": 19 },
    "rotated": false,
    "trimmed": true,
    "spriteSourceSize": { "x": 46, "y": 15, "w": 20, "h": 19 },
    "sourceSize": { "w": 256, "h": 256 },
    "duration": 100
   },
   {
    "filename": "quest:petrol00",
    "frame": { "x": 20, "y": 39, "w": 20, "h": 19 },
    "rotated": false,
    "trimmed": true,
    "spriteSourceSize": { "x": 46, "y": 15, "w": 20, "h": 19 },
    "sourceSize": { "w": 256, "h": 256 },
    "duration": 100
   },
   {
    "filename": "quest:mechanic00",
    "frame": { "x": 40, "y": 39, "w": 20, "h": 19 },
    "rotated": false,
    "trimmed": true,
    "spriteSourceSize": { "x": 46, "y": 15, "w": 20, "h": 19 },
    "sourceSize": { "w": 256, "h": 256 },
    "duration": 100
   },
   {
    "filename": "28",
    "frame": { "x": 280, "y": 26, "w": 20, "h": 19 },
    "rotated": false,
    "trimmed": true,
    "spriteSourceSize": { "x": 46, "y": 15, "w": 20, "h": 19 },
    "sourceSize": { "w": 256, "h": 256 },
    "duration": 100
   },
   {
    "filename": "29",
    "frame": { "x": 280, "y": 26, "w": 20, "h": 19 },
    "rotated": false,
    "trimmed": true,
    "spriteSourceSize": { "x": 46, "y": 15, "w": 20, "h": 19 },
    "sourceSize": { "w": 256, "h": 256 },
    "duration": 100
   },
   {
    "filename": "30",
    "frame": { "x": 280, "y": 26, "w": 20, "h": 19 },
    "rotated": false,
    "trimmed": true,
    "spriteSourceSize": { "x": 46, "y": 15, "w": 20, "h": 19 },
    "sourceSize": { "w": 256, "h": 256 },
    "duration": 100
   },
   {
    "filename": "31",
    "frame": { "x": 280, "y": 26, "w": 20, "h": 19 },
    "rotated": false,
    "trimmed": true,
    "spriteSourceSize": { "x": 46, "y": 15, "w": 20, "h": 19 },
    "sourceSize": { "w": 256, "h": 256 },
    "duration": 100
   },
   {
    "filename": "32",
    "frame": { "x": 280, "y": 26, "w": 20, "h": 19 },
    "rotated": false,
    "trimmed": true,
    "spriteSourceSize": { "x": 46, "y": 15, "w": 20, "h": 19 },
    "sourceSize": { "w": 256, "h": 256 },
    "duration": 100
   },
   {
    "filename": "33",
    "frame": { "x": 359, "y": 0, "w": 1, "h": 1 },
    "rotated": false,
    "trimmed": true,
    "spriteSourceSize": { "x": 0, "y": 0, "w": 1, "h": 1 },
    "sourceSize": { "w": 256, "h": 256 },
    "duration": 100
   },
   {
    "filename": "phone:menu00",
    "frame": { "x": 182, "y": 0, "w": 91, "h": 20 },
    "rotated": false,
    "trimmed": true,
    "spriteSourceSize": { "x": 46, "y": 30, "w": 91, "h": 20 },
    "sourceSize": { "w": 256, "h": 256 },
    "duration": 100
   },
   {
    "filename": "phone:menu01",
    "frame": { "x": 91, "y": 0, "w": 91, "h": 20 },
    "rotated": false,
    "trimmed": true,
    "spriteSourceSize": { "x": 46, "y": 30, "w": 91, "h": 20 },
    "sourceSize": { "w": 256, "h": 256 },
    "duration": 100
   },
   {
    "filename": "phone:menu02",
    "frame": { "x": 0, "y": 0, "w": 91, "h": 20 },
    "rotated": false,
    "trimmed": true,
    "spriteSourceSize": { "x": 46, "y": 30, "w": 91, "h": 20 },
    "sourceSize": { "w": 256, "h": 256 },
    "duration": 100
   },
   {
    "filename": "phone:menu03",
    "frame": { "x": 0, "y": 0, "w": 91, "h": 20 },
    "rotated": false,
    "trimmed": true,
    "spriteSourceSize": { "x": 46, "y": 30, "w": 91, "h": 20 },
    "sourceSize": { "w": 256, "h": 256 },
    "duration": 100
   },
   {
    "filename": "38",
    "frame": { "x": 359, "y": 0, "w": 1, "h": 1 },
    "rotated": false,
    "trimmed": true,
    "spriteSourceSize": { "x": 0, "y": 0, "w": 1, "h": 1 },
    "sourceSize": { "w": 256, "h": 256 },
    "duration": 100
   },
   {
    "filename": "ui:box100",
    "frame": { "x": 0, "y": 20, "w": 20, "h": 20 },
    "rotated": false,
    "trimmed": true,
    "spriteSourceSize": { "x": 46, "y": 14, "w": 20, "h": 20 },
    "sourceSize": { "w": 256, "h": 256 },
    "duration": 100
   },
   {
    "filename": "40",
    "frame": { "x": 359, "y": 0, "w": 1, "h": 1 },
    "rotated": false,
    "trimmed": true,
    "spriteSourceSize": { "x": 0, "y": 0, "w": 1, "h": 1 },
    "sourceSize": { "w": 256, "h": 256 },
    "duration": 100
   },
   {
    "filename": "petrolstation:menu00",
    "frame": { "x": 120, "y": 39, "w": 29, "h": 13 },
    "rotated": false,
    "trimmed": true,
    "spriteSourceSize": { "x": 30, "y": 14, "w": 29, "h": 13 },
    "sourceSize": { "w": 256, "h": 256 },
    "duration": 100
   },
   {
    "filename": "petrolstation:menu01",
    "frame": { "x": 149, "y": 39, "w": 29, "h": 13 },
    "rotated": false,
    "trimmed": true,
    "spriteSourceSize": { "x": 30, "y": 14, "w": 29, "h": 13 },
    "sourceSize": { "w": 256, "h": 256 },
    "duration": 100
   },
   {
    "filename": "43",
    "frame": { "x": 359, "y": 0, "w": 1, "h": 1 },
    "rotated": false,
    "trimmed": true,
    "spriteSourceSize": { "x": 0, "y": 0, "w": 1, "h": 1 },
    "sourceSize": { "w": 256, "h": 256 },
    "duration": 100
   },
   {
    "filename": "mechanic:upgrade00",
    "frame": { "x": 273, "y": 13, "w": 54, "h": 13 },
    "rotated": false,
    "trimmed": true,
    "spriteSourceSize": { "x": 30, "y": 21, "w": 54, "h": 13 },
    "sourceSize": { "w": 256, "h": 256 },
    "duration": 100
   },
   {
    "filename": "mechanic:upgrade01",
    "frame": { "x": 273, "y": 0, "w": 54, "h": 13 },
    "rotated": false,
    "trimmed": true,
    "spriteSourceSize": { "x": 30, "y": 21, "w": 54, "h": 13 },
    "sourceSize": { "w": 256, "h": 256 },
    "duration": 100
   },
   {
    "filename": "mechanic:exit00",
    "frame": { "x": 178, "y": 39, "w": 23, "h": 13 },
    "rotated": false,
    "trimmed": true,
    "spriteSourceSize": { "x": 43, "y": 21, "w": 23, "h": 13 },
    "sourceSize": { "w": 256, "h": 256 },
    "duration": 100
   },
   {
    "filename": "mechanic:exit01",
    "frame": { "x": 201, "y": 39, "w": 23, "h": 13 },
    "rotated": false,
    "trimmed": true,
    "spriteSourceSize": { "x": 43, "y": 21, "w": 23, "h": 13 },
    "sourceSize": { "w": 256, "h": 256 },
    "duration": 100
   },
   {
    "filename": "mechanic:upgradeState00",
    "frame": { "x": 347, "y": 23, "w": 9, "h": 9 },
    "rotated": false,
    "trimmed": true,
    "spriteSourceSize": { "x": 46, "y": 25, "w": 9, "h": 9 },
    "sourceSize": { "w": 256, "h": 256 },
    "duration": 100
   },
   {
    "filename": "mechanic:upgradeState01",
    "frame": { "x": 347, "y": 32, "w": 9, "h": 9 },
    "rotated": false,
    "trimmed": true,
    "spriteSourceSize": { "x": 46, "y": 25, "w": 9, "h": 9 },
    "sourceSize": { "w": 256, "h": 256 },
    "duration": 100
   },
   {
    "filename": "50",
    "frame": { "x": 359, "y": 0, "w": 1, "h": 1 },
    "rotated": false,
    "trimmed": true,
    "spriteSourceSize": { "x": 0, "y": 0, "w": 1, "h": 1 },
    "sourceSize": { "w": 256, "h": 256 },
    "duration": 100
   },
   {
    "filename": "51",
    "frame": { "x": 359, "y": 0, "w": 1, "h": 1 },
    "rotated": false,
    "trimmed": true,
    "spriteSourceSize": { "x": 0, "y": 0, "w": 1, "h": 1 },
    "sourceSize": { "w": 256, "h": 256 },
    "duration": 100
   },
   {
    "filename": "52",
    "frame": { "x": 359, "y": 0, "w": 1, "h": 1 },
    "rotated": false,
    "trimmed": true,
    "spriteSourceSize": { "x": 0, "y": 0, "w": 1, "h": 1 },
    "sourceSize": { "w": 256, "h": 256 },
    "duration": 100
   },
   {
    "filename": "53",
    "frame": { "x": 359, "y": 0, "w": 1, "h": 1 },
    "rotated": false,
    "trimmed": true,
    "spriteSourceSize": { "x": 0, "y": 0, "w": 1, "h": 1 },
    "sourceSize": { "w": 256, "h": 256 },
    "duration": 100
   },
   {
    "filename": "54",
    "frame": { "x": 359, "y": 0, "w": 1, "h": 1 },
    "rotated": false,
    "trimmed": true,
    "spriteSourceSize": { "x": 0, "y": 0, "w": 1, "h": 1 },
    "sourceSize": { "w": 256, "h": 256 },
    "duration": 100
   },
   {
    "filename": "55",
    "frame": { "x": 359, "y": 0, "w": 1, "h": 1 },
    "rotated": false,
    "trimmed": true,
    "spriteSourceSize": { "x": 0, "y": 0, "w": 1, "h": 1 },
    "sourceSize": { "w": 256, "h": 256 },
    "duration": 100
   }
 ],
 "meta": {
  "app": "https://www.aseprite.org/",
  "version": "1.2.40-x64",
  "image": "spritesheet.png",
  "format": "RGBA8888",
  "size": { "w": 360, "h": 58 },
  "scale": "1",
  "frameTags": [
   { "name": "ball", "from": 0, "to": 0, "direction": "forward" },
   { "name": "white", "from": 1, "to": 1, "direction": "forward" },
   { "name": "texticon:bubble", "from": 3, "to": 3, "direction": "forward" },
   { "name": "quest:bubble", "from": 5, "to": 5, "direction": "forward" },
   { "name": "quest:bubble:green", "from": 6, "to": 8, "direction": "forward" },
   { "name": "quest:bubble:red", "from": 9, "to": 11, "direction": "forward" },
   { "name": "quest:bubble:yellow", "from": 12, "to": 13, "direction": "forward" },
   { "name": "quest:bubble:blue", "from": 14, "to": 15, "direction": "forward" },
   { "name": "quest:bubble:disabled", "from": 16, "to": 17, "direction": "forward" },
   { "name": "quest:parcel", "from": 21, "to": 21, "direction": "forward" },
   { "name": "quest:food", "from": 22, "to": 22, "direction": "forward" },
   { "name": "quest:people", "from": 23, "to": 23, "direction": "forward" },
   { "name": "quest:home", "from": 25, "to": 25, "direction": "forward" },
   { "name": "quest:petrol", "from": 26, "to": 26, "direction": "forward" },
   { "name": "quest:mechanic", "from": 27, "to": 27, "direction": "forward" },
   { "name": "phone:menu", "from": 34, "to": 37, "direction": "forward" },
   { "name": "ui:box1", "from": 39, "to": 39, "direction": "forward" },
   { "name": "petrolstation:menu", "from": 41, "to": 42, "direction": "forward" },
   { "name": "mechanic:upgrade", "from": 44, "to": 45, "direction": "forward" },
   { "name": "mechanic:exit", "from": 46, "to": 47, "direction": "forward" },
   { "name": "mechanic:upgradeState", "from": 48, "to": 49, "direction": "forward" }
  ],
  "layers": [
   { "name": "markers", "opacity": 255, "blendMode": "normal" },
   { "name": "Layer 21", "opacity": 255, "blendMode": "normal" },
   { "name": "Layer 22", "opacity": 255, "blendMode": "normal" },
   { "name": "Layer 23", "opacity": 255, "blendMode": "normal" },
   { "name": "Layer 2", "opacity": 255, "blendMode": "normal" },
   { "name": "Layer 6", "opacity": 255, "blendMode": "normal" },
   { "name": "Layer 7", "opacity": 255, "blendMode": "normal" },
   { "name": "Layer 8", "opacity": 255, "blendMode": "normal" },
   { "name": "Layer 9", "opacity": 255, "blendMode": "normal" },
   { "name": "Layer 10", "opacity": 255, "blendMode": "normal" },
   { "name": "Layer 11", "opacity": 255, "blendMode": "normal" },
   { "name": "Layer 12", "opacity": 255, "blendMode": "normal" },
   { "name": "Layer 13", "opacity": 255, "blendMode": "normal" },
   { "name": "Layer 14", "opacity": 255, "blendMode": "normal" },
   { "name": "Layer 15", "opacity": 255, "blendMode": "normal" },
   { "name": "Layer 16", "opacity": 255, "blendMode": "normal" },
   { "name": "Layer 17", "opacity": 255, "blendMode": "normal" },
   { "name": "Layer 18", "opacity": 255, "blendMode": "normal" },
   { "name": "Layer 19", "opacity": 255, "blendMode": "normal" },
   { "name": "Layer 3", "opacity": 255, "blendMode": "normal" },
   { "name": "Layer 4", "opacity": 255, "blendMode": "normal" },
   { "name": "Layer 5", "opacity": 255, "blendMode": "normal" }
  ],
  "slices": [
  ]
 }
}
