{
  "external": {
    "discord": "Discord",
    "mastodon": "Mastodon",
    "twitter": "Twitter"
  },
  "buildings": {
    "building:petrolstation": {
      "tooltip": "Petrol Station\n\nRefuel here for a price.\n- 100F = $85\n- 50F = $45\n- 10F = $9\n- 1F = $1"
    },
    "building:warehouse": {
      "tooltip": "Warehouse\n\nReport back here by the end of the day."
    },
    "building:mechanic": {
      "tooltip": "Car Mechanic\n\nUpgrade your vehicle here !."
    },
    "building:house": {
      "tooltip": "House"
    },
    "building:mall": {
      "tooltip": "Mall"
    }
  },
  "upgrades": {
    "food": {
      "tooltip": "Upgrade to take up jobs to deliver food."
    },
    "fuel": {
      "tooltip": "Upgrade Fuel Capacity.\nEach level increase it by 20."
    },
    "gear": {
      "tooltip": "Increase speed for this specific gear.\nEach level decrease time by 1 minute."
    },
    "seat": {
      "tooltip": "Upgrade to take up jobs to transport people."
    }
  },
  "templates": {
    "keywords": {}
  }
}